<svg xmlns="http://www.w3.org/2000/svg" xmlns:xlink="http://www.w3.org/1999/xlink" width="78.837" height="56" viewBox="0 0 78.837 56">
  <defs>
    <clipPath id="clip-path">
      <rect id="Rectangle_1126" data-name="Rectangle 1126" width="78.836" height="56" fill="none"/>
    </clipPath>
  </defs>
  <g id="Group_618" data-name="Group 618" transform="translate(0 0)">
    <path id="Path_456" data-name="Path 456" d="M39.607,60.007V49.639l-4.812-5.5-5.5,5.328V60.012Z" transform="translate(-8.395 -12.648)" fill="#fff"/>
    <path id="Path_457" data-name="Path 457" d="M42.485,0l-.029,8.622-1.6,6.3-3.093,6.7V33.144H34.837V36.41l-2.922,1.547v8.937h-12.2V37.612l-2.063-1.719v-11H15.243V21.284L9.227,23.347V43.972H7.337V30.394H3.727L.117,33.487V48.441L0,56H78.837V36.065H76.946V33.659H75.4V28.675l-2.578-3.437L69.9,28.675v3.954H66.805V41.05H64.743V22.659l-3.095-1.03V15.613l-6.187-3.094V36.581l-1.375.516V18.534l-4.641,3.094V31.6H47.04V21.112l-2.922-6.36L42.743,8.508V0Z" transform="translate(0 0)" fill="#69a9dc"/>
    <g id="Group_617" data-name="Group 617" transform="translate(0 0)">
      <g id="Group_616" data-name="Group 616" clip-path="url(#clip-path)">
        <path id="Path_458" data-name="Path 458" d="M36.522,38.447v2.636s1.483-1.209,2.17-1.209A5.316,5.316,0,0,1,39.874,40V37.764a1.332,1.332,0,0,0-1.565-.195,8.8,8.8,0,0,0-1.786.878" transform="translate(-10.466 -10.722)" fill="#fff"/>
      </g>
    </g>
  </g>
</svg>
